{
  "main" : [
    "bootstrap-webpack!./src/Styles/config/bootstrap.config.js",
    "font-awesome-webpack!./src/Styles/config/font-awesome.config.js",
    "./src/App.js"
  ],
  "vendor" : [
    "html-template-tag",
    "vue",
    "vuex",
    "vue-router",
    "axios",
    "nouislider",
    "nouislider/distribute/nouislider.min.css" 
  ]
}
